Tuning persistent homological hyperparameters
…
#> 
#> ── Inputs
#> Number of variables by role
#> outcome: 1
#> image:   1
#> 
#> ── Training information
#> Training data contained 600 data points and no incomplete rows.
#> 
#> ── Operations
#> • Gaussian blurring of: <none> | Trained
#> • persistent features from a cubical filtration of: <none> | Trained
#> • persistence landscape of: <none> | Trained
summary(mnist_prep)
#> # A tibble: 51 × 4
#>    variable        type      role                source  
#>    <chr>           <list>    <chr>               <chr>   
#>  1 digit           <chr [1]> image               original
#>  2 label           <chr [3]> outcome             original
#>  3 digit_pd        <chr [1]> persistence diagram derived 
#>  4 digit_pd_pl_1_1 <chr [2]> predictor           derived 
#>  5 digit_pd_pl_1_2 <chr [2]> predictor           derived 
#>  6 digit_pd_pl_1_3 <chr [2]> predictor           derived 
#>  7 digit_pd_pl_1_4 <chr [2]> predictor           derived 
#>  8 digit_pd_pl_1_5 <chr [2]> predictor           derived 
#>  9 digit_pd_pl_1_6 <chr [2]> predictor           derived 
#> 10 digit_pd_pl_1_7 <chr [2]> predictor           derived 
#> # ℹ 41 more rows

And we can inspect the result of applying the prepared recipe to the
training data:

mnist_rec |> 
  prep() |> 
  bake(new_data = mnist_train)
#> # A tibble: 600 × 51
#>    digit    label digit_pd       digit_pd_pl_1_1 digit_pd_pl_1_2 digit_pd_pl_1_3
#>    <list>   <fct> <list>                   <dbl>           <dbl>           <dbl>
#>  1 <dbl[…]> 1     <PHom [7 × 3]>               0               0            3.15
#>  2 <dbl[…]> 6     <PHom [4 × 3]>               0               0            0   
#>  3 <dbl[…]> 6     <PHom [4 × 3]>               0               0            0   
#>  4 <dbl[…]> 2     <PHom [6 × 3]>               0               0            0   
#>  5 <dbl[…]> 7     <PHom [4 × 3]>               0               0            0   
#>  6 <dbl[…]> 9     <PHom [4 × 3]>               0               0            0   
#>  7 <dbl[…]> 2     <PHom [5 × 3]>               0               0            5.49
#>  8 <dbl[…]> 0     <PHom [7 × 3]>               0               0            0   
#>  9 <dbl[…]> 4     <PHom [5 × 3]>               0               0            0   
#> 10 <dbl[…]> 3     <PHom [5 × 3]>               0               0            0   
#> # ℹ 590 more rows
#> # ℹ 45 more variables: digit_pd_pl_1_4 <dbl>, digit_pd_pl_1_5 <dbl>,
#> #   digit_pd_pl_1_6 <dbl>, digit_pd_pl_1_7 <dbl>, digit_pd_pl_1_8 <dbl>,
#> #   digit_pd_pl_1_9 <dbl>, digit_pd_pl_1_10 <dbl>, digit_pd_pl_1_11 <dbl>,
#> #   digit_pd_pl_1_12 <dbl>, digit_pd_pl_1_13 <dbl>, digit_pd_pl_1_14 <dbl>,
#> #   digit_pd_pl_1_15 <dbl>, digit_pd_pl_1_16 <dbl>, digit_pd_pl_2_1 <dbl>,
#> #   digit_pd_pl_2_2 <dbl>, digit_pd_pl_2_3 <dbl>, digit_pd_pl_2_4 <dbl>, …
…
mnist_prep$steps[[1]]$blur_sigmas
#> digit 
#>   3.5

To evaluate the model, we generate predictions for the testing set
and compare them to the true labels. Because accuracy is a coarse metric
for a 10-value classification task, we examine the confusion matrix to
get a sense of what errors are most common.

mnist_fit |> 
  predict(new_data = bake(prep(mnist_rec), new_data = mnist_test)) |> 
  bind_cols(select(mnist_test, label)) |> 
  print() -> mnist_pred
#> # A tibble: 100 × 2
#>    .pred_class label
#>    <fct>       <fct>
#>  1 5           0    
#>  2 4           1    
#>  3 1           4    
#>  4 4           1    
#>  5 1           2    
#>  6 2           0    
#>  7 1           4    
#>  8 6           9    
#>  9 3           6    
#> 10 5           0    
#> # ℹ 90 more rows
…
mnist_rec |> 
  finalize_recipe(parameters = list(blur_sd = 8, pl_deg = 0, pl_lev = 3)) |> 
  prep() |> 
  bake(new_data = mnist_train) ->
  mnist_bake
print(mnist_bake)
#> # A tibble: 600 × 51
#>    digit    label digit_pd       digit_pd_pl_1_1 digit_pd_pl_1_2 digit_pd_pl_1_3
#>    <list>   <fct> <list>                   <dbl>           <dbl>           <dbl>
#>  1 <dbl[…]> 1     <PHom [6 × 3]>               0            5.19            0   
#>  2 <dbl[…]> 6     <PHom [4 × 3]>               0            0               3.85
#>  3 <dbl[…]> 6     <PHom [4 × 3]>               0            0              15.2 
#>  4 <dbl[…]> 2     <PHom [4 × 3]>               0            0               0   
#>  5 <dbl[…]> 7     <PHom [4 × 3]>               0            0               5.33
#>  6 <dbl[…]> 9     <PHom [4 × 3]>               0            0               7.97
#>  7 <dbl[…]> 2     <PHom [4 × 3]>               0            0               6.87
#>  8 <dbl[…]> 0     <PHom [4 × 3]>               0            0               9.98
#>  9 <dbl[…]> 4     <PHom [4 × 3]>               0            0               5.14
#> 10 <dbl[…]> 3     <PHom [4 × 3]>               0            0              11.1 
#> # ℹ 590 more rows
#> # ℹ 45 more variables: digit_pd_pl_1_4 <dbl>, digit_pd_pl_1_5 <dbl>,
#> #   digit_pd_pl_1_6 <dbl>, digit_pd_pl_1_7 <dbl>, digit_pd_pl_1_8 <dbl>,
#> #   digit_pd_pl_1_9 <dbl>, digit_pd_pl_1_10 <dbl>, digit_pd_pl_1_11 <dbl>,
#> #   digit_pd_pl_1_12 <dbl>, digit_pd_pl_1_13 <dbl>, digit_pd_pl_1_14 <dbl>,
#> #   digit_pd_pl_1_15 <dbl>, digit_pd_pl_1_16 <dbl>, digit_pd_pl_2_1 <dbl>,
#> #   digit_pd_pl_2_2 <dbl>, digit_pd_pl_2_3 <dbl>, digit_pd_pl_2_4 <dbl>, …
…
The resulting RF correctly classifies roughly half of the images “out
of bag”—not great, but much better than the model using intuited
hyperparameter values (and than pure chance). (Note also that the
blur standard deviation is lower than originally defaulted
to.) As before, we can look to the confusion matrix for insights into
the sources of error:

mnist_fit |> 
  predict(new_data = bake(mnist_fin, new_data = mnist_train)) |> 
  bind_cols(select(mnist_train, label)) |> 
  print() -> mnist_pred
#> # A tibble: 600 × 2
#>    .pred_class label
#>    <fct>       <fct>
#>  1 1           1    
#>  2 6           6    
#>  3 9           6    
#>  4 0           2    
#>  5 3           7    
#>  6 9           9    
#>  7 4           2    
#>  8 6           0    
#>  9 4           4    
#> 10 9           3    
#> # ℹ 590 more rows
…
Among the most-confused digits in previous runs of these experiments
are \(1\) and \(7\), \(2\)
and \(5\), and \(3\) and \(5\). (The results above should be similar
but will depend somewhat on the state of the random number generator.)
This is more in keeping with the topological similarities of the digits,
though geometry is also clearly playing a role.

Finally, we evaluate the final model on the testing set—the holdout
data from the original partition.

mnist_fit |> 
  predict(new_data = bake(mnist_fin, new_data = mnist_test)) |> 
  bind_cols(select(mnist_test, label)) |> 
  print() -> mnist_pred
#> # A tibble: 100 × 2
#>    .pred_class label
#>    <fct>       <fct>
#>  1 2           0    
#>  2 9           1    
#>  3 4           4    
#>  4 1           1    
#>  5 1           2    
#>  6 0           0    
#>  7 1           4    
#>  8 9           9    
#>  9 7           6    
#> 10 0           0    
#> # ℹ 90 more rows
…
